[
    {
        "id": 0,
        "firstName": "Vasia",
        "lastName": "Petyrov",
        "comment": "Ptrov Vasya"
    },
    {
        "id": 1,
        "firstName": "Vasia2",
        "lastName": "Ivanov",
        "comment": "Uasiliy Ivanov"
    }
]